﻿deal_id,has_buyside_rwi
29981,N
732911,N
819175,N
892231,N
626076,N
541949,N
498376,N
224763,N
769822,N
75609,N
229333,N
420765,N
281388,N
933658,N
924847,N
100305,N
383858,N
402604,N
330333,N
737064,N
992,N
386815,N
178125,N
40738,N
164201,N
298028,N
165204,N
84782,N
825882,Y
514099,Y
882569,Y
439271,Y
638095,Y
859583,Y
663951,Y
809234,Y
711161,Y
834863,Y
844231,Y
852938,Y
799251,Y
614044,Y
799267,Y
765282,Y
645998,Y
697608,Y
816376,Y
34742,Y
844232,Y
800057,Y
666401,Y
886838,Y
682175,Y
227610,Y
855078,Y
594070,Y
804894,Y
530365,Y
922227,Y
886831,Y
868277,Y
707200,Y
882570,Y
746537,Y
924039,Y
428795,Y
784006,Y
494158,Y
864076,Y
323677,y
776325,Y
457099,Y
591315,Y
909044,Y
878378,Y
323349,Y
734680,Y
860721,Y
660141,Y
662664,Y
888272,Y
591314,Y
766258,Y
663329,Y
528187,Y
733761,Y
658577,Y
919174,Y
753211,Y
844233,Y
829445,Y
697436,Y
856812,Y
198329,Y
804057,Y
894605,Y
458935,Y
924853,Y
866856,Y
865408,Y
612175,Y
605567,Y
844234,Y
440079,Y
940768,Y
919173,Y
759430,Y
750948,Y
749406,Y
769216,Y
759196,Y
840779,Y
699844,Y
611736,Y
795675,Y
796682,Y
544500,Y
552180,Y
860705,Y
740539,Y
726754,Y
865421,Y